module gunmurat7/todo-app-server

go 1.17

require (
	github.com/gofiber/fiber/v2 v2.25.0
	github.com/pact-foundation/pact-go v1.6.9
	github.com/stretchr/testify v1.7.0
	go.mongodb.org/mongo-driver v1.8.3
)

require (
	github.com/hashicorp/go-version v1.3.0 // indirect
	github.com/hashicorp/logutils v1.0.0 // indirect
	golang.org/x/xerrors v0.0.0-20200804184101-5ec99f83aff1 // indirect
)

replace gopkg.in/urfave/cli.v2 => github.com/urfave/cli/v2 v2.3.0

require (
	github.com/andybalholm/brotli v1.0.2 // indirect
	github.com/davecgh/go-spew v1.1.1 // indirect
	github.com/go-stack/stack v1.8.0 // indirect
	github.com/golang/snappy v0.0.3 // indirect
	github.com/inconshreveable/mousetrap v1.0.0 // indirect
	github.com/joho/godotenv v1.4.0
	github.com/klauspost/compress v1.13.6 // indirect
	github.com/pkg/errors v0.9.1 // indirect
	github.com/pmezard/go-difflib v1.0.0 // indirect
	github.com/spf13/cobra v0.0.0-20160604044732-f447048345b6 // indirect
	github.com/spf13/pflag v0.0.0-20160427162146-cb88ea77998c // indirect
	github.com/stretchr/objx v0.1.1 // indirect
	github.com/valyala/bytebufferpool v1.0.0 // indirect
	github.com/valyala/fasthttp v1.32.0 // indirect
	github.com/valyala/tcplisten v1.0.0 // indirect
	github.com/xdg-go/pbkdf2 v1.0.0 // indirect
	github.com/xdg-go/scram v1.0.2 // indirect
	github.com/xdg-go/stringprep v1.0.2 // indirect
	github.com/youmark/pkcs8 v0.0.0-20181117223130-1be2e3e5546d // indirect
	golang.org/x/crypto v0.0.0-20210513164829-c07d793c2f9a // indirect
	golang.org/x/sync v0.0.0-20210220032951-036812b2e83c // indirect
	golang.org/x/sys v0.0.0-20211103235746-7861aae1554b // indirect
	golang.org/x/text v0.3.6 // indirect
	gopkg.in/pact-foundation/pact-go.v1 v1.1.0 // indirect
	gopkg.in/yaml.v3 v3.0.0-20210107192922-496545a6307b // indirect
)
